enter grades and credits: 
grade is: A+ credits =    3 points =  4.0 
grade is: B- credits =    3 points =  2.7 
grade is: C  credits =    2 points =  2.0 
grade is: B+ credits =    3 points =  3.3 
grade is: A- credits =    4 points =  3.7 
grade is: F  credits =    3 points =  0.0 
grade is: D- credits =    3 points =  1.0 
grade is: E  credits =    3 points =  0.0 
grade is: F+ credits =    2 points =  0.0 
